C:\Users\Mishu\Desktop\Book-Finder-85c2a5e3001055849b416f6523cfefa43af23250\Server\src\main\java\proto\Person.java
C:\Users\Mishu\Desktop\Book-Finder-85c2a5e3001055849b416f6523cfefa43af23250\Server\src\main\java\proto\GreeterGrpc.java
C:\Users\Mishu\Desktop\Book-Finder-85c2a5e3001055849b416f6523cfefa43af23250\Server\src\main\java\Main.java
